unigram	count
w:prep	753164
z:prep	469244
i:conj	273826
na:prep	245115
do:prep	235806
artykuł:brev	200514
nie:qub	196499
o:prep	175808
rok:brev	156014
że:comp	144690
on:ppron3	144370
przez:prep	138978
ten:adj	135383
dzień:subst	131630
sąd:subst	116923
być:fin	108430
który:adj	106410
postępowanie:subst	100521
się:qub	98292
zamawiać:pact	96317
koło:brev	94890
ustęp:brev	91694
ustawa:subst	87582
oraz:conj	78150
a:conj	77356
oferta:subst	75104
od:prep	71165
prawo:subst	70536
wykonawca:subst	66924
zamówienie:subst	65924
sprawa:subst	65325
odwoływać:pact	63087
podstawa:subst	59885
przepis:subst	59619
to:subst	59137
pan:brev	58096
numer:brev	57045
za:prep	54797
wyrok:subst	49614
córka:brev	46924
punkt:brev	46635
iż:comp	46303
zakres:subst	46179
zostać:praet	45054
izba:subst	44938
umowa:subst	42928
lub:conj	42581
być:praet	41783
postanowienie:subst	40615
strona:brev	40247
strona:subst	40198
praca:subst	40113
powód:subst	38771
ojciec:brev	38308
treść:subst	37359
ocena:subst	36678
móc:fin	35748
skarga:subst	35696
po:prep	35601
pozycja:brev	34836
co:subst	34807
zarzut:subst	34713
koszt:subst	34678
prawny:adj	33393
odwołanie:subst	32974
taki:adj	32813
dla:prep	32611
sposób:subst	31654
pzp:brev	30881
publiczny:adj	30359
dokument:subst	29159
odwoławczy:adj	29150
inny:adj	28686
wysoki:adj	28645
warunek:subst	28623
przedmiot:subst	28363
mieć:fin	28303
akt:subst	27662
zgodnie:adv	27102
u:prep	26054
konstytucyjny:adj	25837
przy:prep	25811
związek:subst	25507
osoba:subst	25208
złoty:brev	25020
wniosek:subst	24825
jako:conj	24632
kwota:subst	24315
sygnatura:brev	24279
czynność:subst	24072
być:inf	24009
zasada:subst	23997
należeć:fin	23514
termin:subst	23171
powyższy:adj	22942
rok:subst	22670
cena:subst	22597
udział:subst	22587
okręgowy:adj	22570
sam:adj	22397
spółka:subst	20750
dotyczyć:pact	20689
by:qub	19800
okres:subst	19711
spółka:brev	19605
okoliczność:subst	19603
obowiązek:subst	19574
uwaga:subst	19336
dziennik:brev	18970
przed:prep	18936
interp:disamb	18795
zmiana:subst	18728
decyzja:subst	18690
brak:subst	18646
usługa:subst	18539
również:qub	18434
część:subst	18316
jak:adv	18305
ulica:brev	18037
trybunał:subst	17868
jaki:adj	17800
rzecz:subst	17790
stanowisko:subst	17749
także:qub	17670
konstytucja:subst	17651
określić:ppas	17522
możliwość:subst	16958
zatem:conj	16884
skarżyć:pact	16875
naruszyć:ger	16689
informacja:subst	16508
oświadczenie:subst	16478
swój:adj	16355
pod:prep	16311
apelacyjny:adj	16282
warszawa:subst	16262
miasto:brev	16225
sytuacja:subst	16190
niniejszy:adj	16134
tytuł:subst	16105
styczeń:subst	15944
prezes:subst	15936
zawrzeć:ppas	15925
cel:subst	15885
pismo:subst	15836
orzeczenie:subst	15828
kasacyjny:adj	15612
wysokość:subst	15589
wynikać:fin	15507
mieć:praet	15484
wartość:subst	15377
przypadek:subst	15193
pierwszy:adj	15184
zaskarżyć:ppas	15137
uzasadnienie:subst	14941
instancja:subst	14919
naruszenie:subst	14916
stan:subst	14900
bowiem:comp	14892
stanowić:fin	14843
krajowy:adj	14841
ubezpieczenie:subst	14786
wskazać:praet	14700
wykonać:ger	14639
podmiot:subst	14583
powinien:winien	14554
wobec:prep	14525
istotny:adj	14327
grudzień:subst	14170
marzec:subst	14050
stosunek:subst	13964
wynik:subst	13858
udzielić:ger	13807
czy:qub	13693
dowód:subst	13527
drugi:adj	13512
charakter:subst	13505
co:comp	13422
jedynie:qub	13270
albo:brev	13236
zdanie:subst	13025
wskazać:ppas	12872
organ:subst	12857
konsorcjum:subst	12821
jeden:adj	12821
bez:prep	12765
państwo:subst	12755
złożyć:ppas	12706
poprzez:prep	12668
jednak:conj	12667
pozwany:subst	12618
gdy:adv	12597
przesłanka:subst	12566
ochrona:subst	12533
faktyczny:adj	12531
system:subst	12519
społeczny:adj	12509
móc:praet	12508
przedmiotowy:adj	12500
rozporządzenie:subst	12424
skład:subst	12416
działalność:subst	12339
październik:subst	12098
być:bedzie	11981
pozwać:ppas	11961
nieruchomość:subst	11953
czerwiec:subst	11944
powódka:subst	11941
to jest:brev	11914
rozprawa:subst	11876
żaden:adj	11830
pracownik:subst	11806
realizacja:subst	11802
uznać:praet	11798
siwz:subst	11787
wzgląd:subst	11651
wymaganie:subst	11619
też:qub	11601
można:pred	11592
lipiec:subst	11546
więc:conj	11387
odpowiedzialność:subst	11383
polski:adj	11323
kio:subst	11270
tylko:qub	11224
kwiecień:subst	11213
wszystek:adj	11129
listopad:subst	11083
zmarł:brev	11011
środek:subst	10961
zw:brev	10847
maj:subst	10811
wyjaśnienie:subst	10756
wnieść:praet	10697
wrzesień:subst	10627
cywilny:adj	10619
skutek:subst	10610
odwołać:ger	10589
natomiast:conj	10569
czas:subst	10535
punkt:subst	10498
załącznik:subst	10438
jeżeli:comp	10398
robota:subst	10367
uwzględnić:ger	10276
świadczenie:subst	10256
urząd:subst	10231
to:pred	10198
fakt:subst	10155
jak:conj	10134
konsument:subst	10108
siedziba:subst	10021
przewodniczący:subst	9934
interes:subst	9909
stwierdzić:praet	9906
rozpoznać:ger	9823
siwz:adj	9712
daleko:adv	9683
gdyż:comp	9654
roszczenie:subst	9648
wybór:subst	9647
ustalenie:subst	9645
tryb:subst	9585
specyfikacja:subst	9584
usta:subst	9559
wiek:brev	9499
konkurencja:subst	9487
każdy:adj	9453
miejsce:subst	9443
kara:subst	9404
wynikać:pact	9364
a:subst	9364
apelacja:subst	9355
wymagać:ppas	9302
złożyć:ger	9274
powództwo:subst	9253
korzystny:adj	9191
wpływ:subst	9166
przystępować:pact	9145
sierpień:subst	9112
urządzenie:subst	9103
sądowy:adj	9080
zastosowanie:subst	9064
ponadto:qub	9048
język:brev	9024
pełnomocnik:subst	9015
wynagrodzenie:subst	8967
doświadczenie:subst	8948
odrzucić:ger	8856
zażalenie:subst	8842
zaś:conj	8826
szkoda:subst	8808
określony:adj	8688
wolność:subst	8651
wpis:subst	8614
techniczny:adj	8583
procesowy:adj	8572
godzina:brev	8570
wraz:adv	8483
całość:subst	8468
wymóg:subst	8454
minister:subst	8451
e:interj	8432
ale:conj	8386
rodzaj:subst	8298
tak:adv	8279
rozstrzygnięcie:subst	8275
zakład:subst	8274
stanowić:pact	8273
działanie:subst	8268
żądanie:subst	8243
opis:subst	8147
kontrola:subst	8146
rejonowy:adj	8142
aby:comp	8132
wykaz:subst	8040
odpowiedź:subst	8035
budowlany:adj	8012
prowadzić:ppas	7993
były:brev	7991
dokonać:ger	7981
firma:subst	7972
już:qub	7896
uchwała:subst	7894
dotyczyć:fin	7885
także:conj	7878
warunki:subst	7869
szczególność:subst	7853
gospodarczy:adj	7827
następować:fin	7807
przedsiębiorstwo:subst	7805
znaczenie:subst	7718
pkt:subst	7709
wydać:ppas	7707
moc:subst	7706
uznać:inf	7629
zwrot:subst	7629
wydać:ger	7562
wątpliwość:subst	7549
musieć:fin	7522
droga:subst	7519
tom:brev	7512
ramy:subst	7459
wykluczyć:ger	7432
konsekwencja:subst	7427
wskazywać:fin	7404
czy:conj	7347
wnieść:ppas	7346
rada:subst	7339
element:subst	7326
norma:subst	7271
mowa:subst	7251
spełniać:ger	7245
złożyć:praet	7239
opłata:subst	7228
ogłoszenie:subst	7220
wykładnia:subst	7212
projekt:subst	7193
związany:adj	7172
to:conj	7152
wnieść:ger	7129
kodeks:subst	7096
wykonywać:ger	7092
pozycja:subst	7075
dwa:num	7056
ani:conj	7055
proces:subst	7046
uzyskać:ger	7032
przedstawić:ppas	7013
według:prep	6989
polegać:pact	6971
materiał:subst	6965
złoty:subst	6960
uprawnienie:subst	6942
zobowiązanie:subst	6919
sędzia:subst	6883
odniesienie:subst	6867
data:subst	6862
ustalić:praet	6837
skarb:subst	6810
wyłącznie:qub	6743
forma:subst	6709
stwierdzić:ger	6670
ustalić:ger	6649
wymienić:ppas	6627
wypadek:subst	6611
iii:interj	6568
przyczyna:subst	6567
daleki:adj	6537
luty:adj	6514
porównaj:brev	6510
oznaczać:fin	6507
stosownie:adv	6479
wnioskodawca:subst	6461
pracodawca:subst	6443
bank:subst	6433
posiedzenie:subst	6426
przewidzieć:ppas	6405
kwestia:subst	6384
orzecznictwo:subst	6383
właściwy:adj	6378
rozumienie:subst	6377
niezgodność:subst	6278
własność:subst	6275
postępować:ger	6272
wzorzec:subst	6264
parametr:subst	6251
między:prep	6250
przeciwko:prep	6203
rozpoznanie:subst	6175
i:interj	6174
ponowny:adj	6166
nowy:adj	6148
mało:adv	6087
dowodowy:adj	6082
opinia:subst	6074
podatek:subst	6061
budowa:subst	6046
wykazać:ger	6019
stosować:ger	5999
dokumentacja:subst	5990
niż:prep	5977
dostawa:subst	5969
zadanie:subst	5936
zważyć:praet	5925
karny:adj	5921
regulacja:subst	5906
zapłata:subst	5869
ustawowy:adj	5846
emerytura:subst	5824
badanie:subst	5818
o:interj	5803
niski:adj	5793
zgodność:subst	5785
wiedza:subst	5754
spełniać:fin	5710
dawny:brev	5705
skoro:comp	5703
przyjąć:ger	5703
albo:conj	5699
przysługiwać:fin	5693
ponieważ:comp	5683
administracyjny:adj	5682
składać:ger	5624
rozwiązanie:subst	5607
dany:adj	5603
tok:subst	5599
podlegać:fin	5587
jednocześnie:adv	5587
ii:adj	5564
kryterium:subst	5563
czyn:subst	5552
niezbędny:adj	5535
postać:subst	5528
uzasadnić:ger	5493
dana:subst	5484
szczególny:adj	5467
objąć:ppas	5467
konkretny:adj	5456
przystąpienie:subst	5453
odpowiedni:adj	5446
uczestnik:subst	5441
oparcie:subst	5433
pozostały:adj	5422
raz:subst	5414
jednostka:subst	5401
zarówno:conj	5395
zarząd:subst	5382
nawet:qub	5353
lokal:subst	5344
wysoko:adv	5341
skarżący:subst	5341
mieć:pact	5337
zastosować:ger	5324
pozew:subst	5321
oferować:ppas	5313
na przykład:brev	5292
stawka:subst	5178
ustawodawca:subst	5174
wykonać:ppas	5168
wykazać:praet	5167
umowny:adj	5148
konieczność:subst	5136
uchylić:ger	5120
ustalić:ppas	5108
wezwanie:subst	5101
niezgodny:adj	5084
członek:subst	5077
zawrzeć:ger	5054
mieć:inf	5023
miesiąc:subst	5015
lecz:conj	5008
pogląd:subst	4998
dokonać:ppas	4983
wymagać:fin	4962
co:prep	4926
funkcja:subst	4921
uzupełnić:ger	4888
zapis:subst	4883
błędny:adj	4866
potrzeba:subst	4839
zawierać:fin	4833
trzeci:adj	4822
możliwy:adj	4812
poza:prep	4805
inny:brev	4784
etap:subst	4775
światło:subst	4772
doręczyć:ger	4765
przestępstwo:subst	4764
klauzula:subst	4763
pytanie:subst	4753
opisać:ppas	4748
poszczególny:adj	4744
oba:num	4739
b:subst	4724
być:pact	4722
odrzucenie:subst	4703
jako:prep	4689
prowadzić:fin	4672
prawomocny:adj	4663
tk:subst	4656
prokurator:subst	4646
należeć:praet	4645
prawidłowy:adj	4632
niejawny:adj	4620
wskazany:adj	4617
prowadzić:ger	4616
potwierdzać:pact	4586
posiadać:fin	4573
spełnić:ger	4570
istota:subst	4568
ilość:subst	4560
podnieść:praet	4546
rynek:subst	4522
zawodowy:adj	4519
zobowiązać:ppas	4515
zgodny:adj	4515
siebie:siebie	4489
tysiąc:subst	4475
ogólny:adj	4464
życie:subst	4458
luty:subst	4441
renta:subst	4430
zostać:inf	4429
unieważnić:ger	4421
pomoc:subst	4412
oddalić:praet	4400
znajdować:fin	4380
wieczysty:adj	4362
rażąco:adv	4362
niż:conj	4348
lata:brev	4340
jakikolwiek:adj	4338
cały:adj	4331
producent:subst	4327
sentencja:subst	4306
bieg:subst	4305
wyrazić:ppas	4304
zasądzić:ger	4295
kwestionować:ppas	4295
złożony:adj	4284
pomiędzy:prep	4279
polska:subst	4267
własny:adj	4263
przedsiębiorca:subst	4242
grunt:subst	4241
uznać:ger	4233
ubiegać:pact	4226
finansowy:adj	4222
następujący:adj	4194
upływ:subst	4152
sprzedaż:subst	4142
odszkodowanie:subst	4139
zachowanie:subst	4132
zaskarżyć:ger	4115
n:interj	4105
wskazać:ger	4105
rzeczpospolita:subst	4098
sprzeczny:adj	4094
kopia:subst	4076
przeprowadzić:ger	4073
materialny:adj	4070
podstawowy:adj	4063
imię:subst	4062
south:brev	4062
dodatkowy:adj	4044
błąd:subst	4039
uznanie:subst	4036
pozwany:adj	4028
zarzucić:praet	4023
rentowy:adj	4013
z:brev	4012
gmina:subst	3963
granica:subst	3962
wymiar:subst	3952
wspólnie:adv	3946
świadczyć:ger	3929
otk:brev	3927
stanowić:praet	3924
zaniechać:ger	3913
pojęcie:subst	3909
przekazać:ger	3880
konieczny:adj	3873
winien:winien	3868
budynek:subst	3849
słownie:adv	3849
naszą:brev	3849
orzec:imps	3846
orzekać:pact	3843
mieć:pcon	3842
analiza:subst	3842
bardzo:adv	3837
sieć:subst	3826
oddalić:ger	3818
prowadzić:pact	3812
wola:subst	3811
wyżej wymieniony:brev	3808
rozstrzygnąć:ger	3797
wykonanie:subst	3784
obiekt:subst	3782
uznać:ppas	3781
dojść:praet	3774
gwarancja:subst	3752
mimo:prep	3737
potwierdzić:ger	3723
tylko:conj	3709
majątkowy:adj	3706
podatkowy:adj	3695
zasób:subst	3693
równy:adj	3684
dobry:adj	3672
nazwa:subst	3663
twierdzenie:subst	3662
podczas:prep	3653
iii:adj	3648
dopiero:qub	3645
trzy:num	3631
chwila:subst	3631
produkt:subst	3628
europejski:adj	3624
grupa:subst	3612
łączny:adj	3608
dlatego:adv	3589
brzmienie:subst	3581
przetarg:subst	3575
brać:pcon	3570
generalny:adj	3562
zgoda:subst	3547
odmowa:subst	3542
ograniczony:adj	3534
dokonać:praet	3533
pomimo:prep	3526
protokół:subst	3526
uiścić:ppas	3522
odrębny:adj	3520
pełnomocnictwo:subst	3520
to:qub	3473
procedura:subst	3472
oskarżony:subst	3469
wskazać:imps	3462
podnieść:ppas	3459
następnie:adv	3451
orzec:praet	3443
csk:subst	3435
grosz:subst	3433
ostatni:adj	3432
argumentacja:subst	3420
odpowiadać:fin	3416
ofertowy:adj	3416
rachunek:subst	3400
obowiązywać:pact	3398
stopień:subst	3394
załączyć:ppas	3391
korzystać:ger	3390
pełny:adj	3390
wówczas:adv	3385
obowiązujący:adj	3373
uzasadniony:adj	3368
typ:subst	3332
składka:subst	3328
ssn:subst	3323
naruszać:fin	3314
osobisty:adj	3313
duży:adj	3312
dopuścić:ger	3311
uczciwy:adj	3297
czyli:conj	3285
również:conj	3283
kio:adj	3274
formularz:subst	3273
zdrowie:subst	3260
jeśli:comp	3258
litera:brev	3257
referencja:subst	3257
zawierać:pact	3253
rozdział:subst	3248
wyborczy:adj	3245
spełnienie:subst	3245
pośrednictwo:subst	3245
spór:subst	3239
spółdzielnia:subst	3238
poziom:subst	3223
oczywisty:adj	3221
jednakże:qub	3216
nie:conj	3205
zero:subst	3196
wszystko:subst	3194
ograniczenie:subst	3184
emerytalny:adj	3182
stwierdzić:inf	3180
udzielić:ppas	3179
liczba:subst	3174
gdyby:comp	3173
teren:subst	3168
służba:subst	3165
wymagać:praet	3152
potwierdzać:fin	3150
omyłka:subst	3144
właściciel:subst	3142
należyty:adj	3134
określić:ger	3134
nadać:ger	3133
grosz:brev	3125
zaniechanie:subst	3114
praktyka:subst	3096
kosztorys:subst	3094
c:subst	3093
sa:subst	3090
interpretacja:subst	3077
akta:subst	3074
obrót:subst	3071
wspólny:adj	3064
vat:subst	3057
zu:brev	3051
towar:subst	3050
niedozwolony:adj	3048
formalny:adj	3047
zwać:ppas	3046
uprawnić:ppas	3039
kolejny:adj	3036
pisemny:adj	3034
różny:adj	3026
szczegółowy:adj	3025
sprawiedliwość:subst	3017
posiadanie:subst	3005
pieniężny:adj	3005
przedstawić:praet	3003
nastąpić:praet	2993
ewentualny:adj	2986
powołany:adj	2965
stanowić:inf	2960
uwzględnić:praet	2956
wykonywać:ppas	2951
niezależnie:adv	2940
wrocław:subst	2940
pozostawać:fin	2937
wcześnie:adv	2934
zatrudnienie:subst	2934
przyjąć:praet	2926
zobacz:brev	2925
wskazać:inf	2924
bądź:conj	2916
podać:ppas	2915
zaoferować:ppas	2909
wzór:subst	2905
wskazywać:pcon	2894
porozumienie:subst	2893
nieważność:subst	2890
merytoryczny:adj	2883
zostać:fin	2871
uwzględniać:pcon	2870
główny:adj	2869
zagadnienie:subst	2856
zastępstwo:subst	2842
zasadność:subst	2829
sprawozdawca:subst	2824
księga:subst	2822
iv:adj	2817
państwowy:adj	2813
działać:ger	2810
wezwać:ger	2805
przyjąć:ppas	2804
obejmować:fin	2802
stosowny:adj	2792
ostateczny:adj	2788
oprzeć:ppas	2774
nadzór:subst	2772
pzp:subst	2766
mały:adj	2763
jednoznacznie:adv	2760
bankowy:adj	2760
zakwestionować:ppas	2752
wbrew:prep	2741
sprzęt:subst	2736
podać:praet	2732
instytucja:subst	2729
oddział:subst	2723
miasto:subst	2723
zastrzeżenie:subst	2713
niektóry:adj	2710
kraków:subst	2697
potwierdzić:praet	2696
zdarzenie:subst	2694
majątek:subst	2693
fundusz:subst	2691
brutto:adj	2690
nieprawdziwy:adj	2690
wierzytelność:subst	2688
dyspozycja:subst	2687
cz:brev	2682
potwierdzenie:subst	2677
klient:subst	2675
korzyść:subst	2673
niewłaściwy:adj	2670
przyjęcie:subst	2670
sn:brev	2668
inwestycja:subst	2667
odnosić:fin	2665
przyjąć:inf	2665
elektroniczny:adj	2661
zachodzić:fin	2660
powodować:fin	2659
wypowiedzenie:subst	2657
uzasadnić:ppas	2656
obejmować:pact	2655
regulamin:subst	2649
zakaz:subst	2642
podkreślić:praet	2641
działka:subst	2624
trakt:subst	2624
związać:ppas	2621
argument:subst	2620
instalacja:subst	2618
umorzyć:ger	2617
wszelki:adj	2614
odmienny:adj	2613
zasługiwać:fin	2596
bezpośrednio:adv	2595
dobro:subst	2594
powierzchnia:subst	2593
rejestr:subst	2589
sk:brev	2578
dotychczasowy:adj	2571
wybrać:ppas	2568
istnieć:ger	2568
nakazywać:fin	2566
zamówić:ger	2564
dłużnik:subst	2564
ssn:xxx	2562
odpad:subst	2560
kolejność:subst	2556
protokolant:subst	2555
podmiotowy:adj	2551
dodatkowo:adv	2549
sformułować:ppas	2548
certyfikat:subst	2536
reguła:subst	2527
tajemnica:subst	2525
postanowić:ger	2524
medyczny:adj	2518
pojazd:subst	2517
katowice:subst	2516
dostęp:subst	2514
samodzielny:adj	2503
odnośnie:adv	2502
dopuszczalny:adj	2500
sporny:adj	2495
karta:subst	2494
świadek:subst	2494
wadium:subst	2492
traktować:ger	2492
powszechny:adj	2491
kontrakt:subst	2490
przedłożyć:ppas	2485
ponieść:ppas	2481
zaświadczenie:subst	2475
pozwana:subst	2463
powołać:ppas	2460
minimalny:adj	2459
podlegać:praet	2457
zasadniczy:adj	2456
sporządzić:ppas	2450
rzeczywisty:adj	2445
zeznanie:subst	2443
wskazywać:praet	2440
normatywny:adj	2439
podlegać:pact	2431
komisja:subst	2429
pozbawić:ger	2425
ogół:subst	2423
nadto:qub	2421
przysługiwać:pact	2417
numer:subst	2416
istnieć:fin	2413
zasadny:adj	2411
tabela:subst	2410
wystawić:ppas	2408
program:subst	2402
rozwiązać:ger	2401
kolej:subst	2401
niedopuszczalny:adj	2401
określenie:subst	2400
pan:subst	2399
lex:subst	2399
zdolność:subst	2392
pozwalać:fin	2390
oddalać:fin	2380
zachować:ger	2369
źródło:subst	2368
bezpieczeństwo:subst	2361
homoseksualista:brev	2359
tekst:subst	2358
myśl:subst	2357
określać:fin	2355
górniczy:adj	2348
dopuszczalność:subst	2335
ubezpieczyć:ppas	2329
d:xxx	2323
prawidłowo:adv	2321
odnosić:pcon	2316
wprowadzić:ger	2308
powodowy:adj	2303
wierzyciel:subst	2300
pobierać:ger	2288
organizacja:subst	2288
bezpośredni:adj	2287
sejm:subst	2286
wskutek:prep	2285
odnosić:pact	2285
oprogramowanie:subst	2280
administracja:subst	2274
jednoznaczny:adj	2272
nieuzasadniony:adj	2271
tak zwany:brev	2270
wejść:ger	2267
kontekst:subst	2266
wykonawczy:adj	2264
przewidywać:fin	2260
przyznać:ger	2255
wydział:subst	2253
sprzeczność:subst	2251
internetowy:adj	2248
odpowiednio:adv	2248
by:comp	2245
chodzić:fin	2243
władza:subst	2237
określić:praet	2227
podobny:adj	2222
zgłaszać:pact	2214
obyczaj:subst	2210
opieka:subst	2200
badać:ger	2194
fizyczny:adj	2193
jeszcze:qub	2192
radca:subst	2186
adres:subst	2182
zespół:subst	2180
gdzie:adv	2179
rozpoznawać:ppas	2176
kredyt:subst	2175
wyjaśnić:ger	2167
układ:subst	2167
przekazać:ppas	2163
rozliczać:ger	2159
uwzględnienie:subst	2145
wnioskodawczyni:subst	2144
stwierdzenie:subst	2141
uchybienie:subst	2139
suma:subst	2131
mieszkaniowy:adj	2129
wyrób:subst	2123
przedawnienie:subst	2120
spełnić:ppas	2117
stwierdzać:fin	2115
tenże:adj	2111
nieuczciwy:adj	2107
obecnie:adv	2107
widzenie:subst	2099
nabyć:ger	2099
wznowić:ger	2097
zdrowotny:adj	2094
istnieć:pact	2089
pewien:adj	2088
nad:prep	2088
znak:subst	2087
szpital:subst	2085
zadośćuczynienie:subst	2085
stosować:ppas	2084
orzec:ger	2084
dokonywać:ger	2082
zauważyć:inf	2071
nakazać:ger	2071
ustanowić:ger	2063
wyraźnie:adv	2060
naruszyć:praet	2058
wadliwy:adj	2058
należność:subst	2058
bezzasadny:adj	2054
podział:subst	2046
